…
``` r
library(tidyverse)    # load tidyverse packages, including ggplot2

# get data from rcfss package
# install latest version if not already installed
devtools::install_github("uc-cfss/rcfss")
library(rcfss)

# load the data
data("gun_deaths")
gun_deaths
```

    ## # A tibble: 100,798 × 10
    ##       id  year month       intent police   sex   age
    ##    <int> <int> <dbl>        <chr>  <int> <chr> <int>
    ## 1      1  2012     1      Suicide      0     M    34
    ## 2      2  2012     1      Suicide      0     F    21
    ## 3      3  2012     1      Suicide      0     M    60
    ## 4      4  2012     2      Suicide      0     M    64
    ## 5      5  2012     2      Suicide      0     M    31
    ## 6      6  2012     2      Suicide      0     M    17
    ## 7      7  2012     2 Undetermined      0     M    48
    ## 8      8  2012     3      Suicide      0     M    41
    ## 9      9  2012     2   Accidental      0     M    50
    ## 10    10  2012     2      Suicide      0     M    NA
    ## # ... with 100,788 more rows, and 3 more variables: race <chr>,
    ## #   place <chr>, education <fctr>
…
What is the relationship between race and intent?
=================================================

For example, are whites who are killed by guns more likely to die because of suicide or homicide? How does this compare to blacks and hispanics?

    ## Source: local data frame [21 x 3]
    ## Groups: race [?]
    ## 
    ##                      race       intent     n
    ##                     <chr>        <chr> <int>
    ## 1  Asian/Pacific Islander   Accidental    12
    ## 2  Asian/Pacific Islander     Homicide   559
    ## 3  Asian/Pacific Islander      Suicide   745
    ## 4  Asian/Pacific Islander Undetermined    10
    ## 5                   Black   Accidental   328
    ## 6                   Black     Homicide 19510
    ## 7                   Black      Suicide  3332
    ## 8                   Black Undetermined   126
    ## 9                Hispanic   Accidental   145
    ## 10               Hispanic     Homicide  5634
    ## # ... with 11 more rows
…
